%YAML 1.1
%TAG !u! tag:unity3d.com,2011:
--- !u!74 &7400000
AnimationClip:
  m_ObjectHideFlags: 0
  m_PrefabParentObject: {fileID: 0}
  m_PrefabInternal: {fileID: 0}
  m_Name: explosion
  serializedVersion: 6
  m_Legacy: 0
  m_Compressed: 0
  m_UseHighQualityCurve: 1
  m_RotationCurves: []
  m_CompressedRotationCurves: []
  m_EulerCurves: []
  m_PositionCurves: []
  m_ScaleCurves: []
  m_FloatCurves: []
  m_PPtrCurves:
  - curve:
    - time: 0
      value: {fileID: 21300000, guid: 8b893bc47789c4bc286d157b686b9529, type: 3}
    - time: 0.05
      value: {fileID: 21300002, guid: 8b893bc47789c4bc286d157b686b9529, type: 3}
    - time: 0.1
      value: {fileID: 21300004, guid: 8b893bc47789c4bc286d157b686b9529, type: 3}
    - time: 0.15
      value: {fileID: 21300006, guid: 8b893bc47789c4bc286d157b686b9529, type: 3}
    - time: 0.2
      value: {fileID: 21300008, guid: 8b893bc47789c4bc286d157b686b9529, type: 3}
    - time: 0.25
      value: {fileID: 21300010, guid: 8b893bc47789c4bc286d157b686b9529, type: 3}
    - time: 0.3
      value: {fileID: 21300012, guid: 8b893bc47789c4bc286d157b686b9529, type: 3}
    - time: 0.35
      value: {fileID: 21300014, guid: 8b893bc47789c4bc286d157b686b9529, type: 3}
    - time: 0.4
      value: {fileID: 21300016, guid: 8b893bc47789c4bc286d157b686b9529, type: 3}
    - time: 0.45
      value: {fileID: 21300018, guid: 8b893bc47789c4bc286d157b686b9529, type: 3}
    - time: 0.5
      value: {fileID: 21300020, guid: 8b893bc47789c4bc286d157b686b9529, type: 3}
    - time: 0.55
      value: {fileID: 21300022, guid: 8b893bc47789c4bc286d157b686b9529, type: 3}
    - time: 0.6
      value: {fileID: 21300024, guid: 8b893bc47789c4bc286d157b686b9529, type: 3}
    - time: 0.65
      value: {fileID: 21300026, guid: 8b893bc47789c4bc286d157b686b9529, type: 3}
    - time: 0.7
      value: {fileID: 21300028, guid: 8b893bc47789c4bc286d157b686b9529, type: 3}
    - time: 0.75
      value: {fileID: 21300030, guid: 8b893bc47789c4bc286d157b686b9529, type: 3}
    - time: 0.8
      value: {fileID: 21300032, guid: 8b893bc47789c4bc286d157b686b9529, type: 3}
    - time: 0.85
      value: {fileID: 21300034, guid: 8b893bc47789c4bc286d157b686b9529, type: 3}
    - time: 0.9
      value: {fileID: 21300036, guid: 8b893bc47789c4bc286d157b686b9529, type: 3}
    - time: 0.95
      value: {fileID: 21300038, guid: 8b893bc47789c4bc286d157b686b9529, type: 3}
    - time: 1
      value: {fileID: 21300040, guid: 8b893bc47789c4bc286d157b686b9529, type: 3}
    - time: 1.05
      value: {fileID: 21300042, guid: 8b893bc47789c4bc286d157b686b9529, type: 3}
    - time: 1.1
      value: {fileID: 21300044, guid: 8b893bc47789c4bc286d157b686b9529, type: 3}
    - time: 1.15
      value: {fileID: 21300046, guid: 8b893bc47789c4bc286d157b686b9529, type: 3}
    - time: 1.2
      value: {fileID: 21300048, guid: 8b893bc47789c4bc286d157b686b9529, type: 3}
    - time: 1.25
      value: {fileID: 21300050, guid: 8b893bc47789c4bc286d157b686b9529, type: 3}
    - time: 1.3
      value: {fileID: 21300052, guid: 8b893bc47789c4bc286d157b686b9529, type: 3}
    - time: 1.35
      value: {fileID: 21300054, guid: 8b893bc47789c4bc286d157b686b9529, type: 3}
    - time: 1.4
      value: {fileID: 21300056, guid: 8b893bc47789c4bc286d157b686b9529, type: 3}
    - time: 1.45
      value: {fileID: 21300058, guid: 8b893bc47789c4bc286d157b686b9529, type: 3}
    - time: 1.5
      value: {fileID: 21300060, guid: 8b893bc47789c4bc286d157b686b9529, type: 3}
    - time: 1.55
      value: {fileID: 21300062, guid: 8b893bc47789c4bc286d157b686b9529, type: 3}
    attribute: m_Sprite
    path: 
    classID: 212
    script: {fileID: 0}
  m_SampleRate: 20
  m_WrapMode: 0
  m_Bounds:
    m_Center: {x: 0, y: 0, z: 0}
    m_Extent: {x: 0, y: 0, z: 0}
  m_ClipBindingConstant:
    genericBindings:
    - serializedVersion: 2
      path: 0
      attribute: 0
      script: {fileID: 0}
      typeID: 212
      customType: 23
      isPPtrCurve: 1
    pptrCurveMapping:
    - {fileID: 21300000, guid: 8b893bc47789c4bc286d157b686b9529, type: 3}
    - {fileID: 21300002, guid: 8b893bc47789c4bc286d157b686b9529, type: 3}
    - {fileID: 21300004, guid: 8b893bc47789c4bc286d157b686b9529, type: 3}
    - {fileID: 21300006, guid: 8b893bc47789c4bc286d157b686b9529, type: 3}
    - {fileID: 21300008, guid: 8b893bc47789c4bc286d157b686b9529, type: 3}
    - {fileID: 21300010, guid: 8b893bc47789c4bc286d157b686b9529, type: 3}
    - {fileID: 21300012, guid: 8b893bc47789c4bc286d157b686b9529, type: 3}
    - {fileID: 21300014, guid: 8b893bc47789c4bc286d157b686b9529, type: 3}
    - {fileID: 21300016, guid: 8b893bc47789c4bc286d157b686b9529, type: 3}
    - {fileID: 21300018, guid: 8b893bc47789c4bc286d157b686b9529, type: 3}
    - {fileID: 21300020, guid: 8b893bc47789c4bc286d157b686b9529, type: 3}
    - {fileID: 21300022, guid: 8b893bc47789c4bc286d157b686b9529, type: 3}
    - {fileID: 21300024, guid: 8b893bc47789c4bc286d157b686b9529, type: 3}
    - {fileID: 21300026, guid: 8b893bc47789c4bc286d157b686b9529, type: 3}
    - {fileID: 21300028, guid: 8b893bc47789c4bc286d157b686b9529, type: 3}
    - {fileID: 21300030, guid: 8b893bc47789c4bc286d157b686b9529, type: 3}
    - {fileID: 21300032, guid: 8b893bc47789c4bc286d157b686b9529, type: 3}
    - {fileID: 21300034, guid: 8b893bc47789c4bc286d157b686b9529, type: 3}
    - {fileID: 21300036, guid: 8b893bc47789c4bc286d157b686b9529, type: 3}
    - {fileID: 21300038, guid: 8b893bc47789c4bc286d157b686b9529, type: 3}
    - {fileID: 21300040, guid: 8b893bc47789c4bc286d157b686b9529, type: 3}
    - {fileID: 21300042, guid: 8b893bc47789c4bc286d157b686b9529, type: 3}
    - {fileID: 21300044, guid: 8b893bc47789c4bc286d157b686b9529, type: 3}
    - {fileID: 21300046, guid: 8b893bc47789c4bc286d157b686b9529, type: 3}
    - {fileID: 21300048, guid: 8b893bc47789c4bc286d157b686b9529, type: 3}
    - {fileID: 21300050, guid: 8b893bc47789c4bc286d157b686b9529, type: 3}
    - {fileID: 21300052, guid: 8b893bc47789c4bc286d157b686b9529, type: 3}
    - {fileID: 21300054, guid: 8b893bc47789c4bc286d157b686b9529, type: 3}
    - {fileID: 21300056, guid: 8b893bc47789c4bc286d157b686b9529, type: 3}
    - {fileID: 21300058, guid: 8b893bc47789c4bc286d157b686b9529, type: 3}
    - {fileID: 21300060, guid: 8b893bc47789c4bc286d157b686b9529, type: 3}
    - {fileID: 21300062, guid: 8b893bc47789c4bc286d157b686b9529, type: 3}
  m_AnimationClipSettings:
    serializedVersion: 2
    m_AdditiveReferencePoseClip: {fileID: 0}
    m_AdditiveReferencePoseTime: 0
    m_StartTime: 0
    m_StopTime: 1.5999999
    m_OrientationOffsetY: 0
    m_Level: 0
    m_CycleOffset: 0
    m_HasAdditiveReferencePose: 0
    m_LoopTime: 0
    m_LoopBlend: 0
    m_LoopBlendOrientation: 0
    m_LoopBlendPositionY: 0
    m_LoopBlendPositionXZ: 0
    m_KeepOriginalOrientation: 0
    m_KeepOriginalPositionY: 1
    m_KeepOriginalPositionXZ: 0
    m_HeightFromFeet: 0
    m_Mirror: 0
  m_EditorCurves: []
  m_EulerEditorCurves: []
  m_HasGenericRootTransform: 0
  m_HasMotionFloatCurves: 0
  m_GenerateMotionCurves: 0
  m_Events: []
